Section 9. Dummy Variables and Regression
…
Example

library(tidyverse)
house <- read_csv("house2020_elections.csv")

house %>% 
  dummy_columns(
      select_columns = c("party", "state", 
                         "incumbent_challenge_full"), 
      remove_first_dummy = TRUE,
      ignore_na = FALSE,
      remove_selected_columns = TRUE
    )

# A tibble: 726 × 58
   district receipts disbursements last    voteshare party_REP state_AL state_AR
      <dbl>    <dbl>         <dbl> <chr>       <dbl>     <int>    <int>    <int>
 1        1 2344517.      2232544. CARL         64.4         1        1        0
 2        1   80095.        78973. AVERHA…      35.5         0        1        0
 3        2   57723.        57661. HARVEY…      34.7         0        1        0
 4        5  669026.       223707. BROOKS       95.8         1        1        0
 5        7 2171040.      1498832. SEWELL       97.2         0        1        0
 6        1  966801.      1095518. CRAWFO…     100           1        0        1
 7        7 1830741.      1126436. BERA         56.6         0        0        0
 8        3  397099.       384584. HAMILT…      45.3         1        0        0
 9        4 3022017.      3018529. KENNEDY      44.1         0        0        0
10        6   45504.        45286. BISH         26.7         1        0        0
# ℹ 716 more rows
# ℹ 50 more variables: state_AZ <int>, state_CA <int>, state_CO <int>,
#   state_CT <int>, state_DC <int>, state_DE <int>, state_FL <int>,
#   state_GA <int>, state_HI <int>, state_IA <int>, state_ID <int>,
#   state_IL <int>, state_IN <int>, state_KS <int>, state_KY <int>,
#   state_LA <int>, state_MA <int>, state_MD <int>, state_ME <int>,
#   state_MI <int>, state_MN <int>, state_MO <int>, state_MS <int>, …
…
