Section 3. Types of Data in R
…
Say the name of the file we want to read is “house2020_elections.csv”, we can read this into R by (1) setting our working directory or using an RProject in our course folder and (2) using this code:

read_csv("house2020_elections.csv")

Rows: 726 Columns: 8
── Column specification ────────────────────────────────────────────────────────
Delimiter: ","
chr (4): party, state, incumbent_challenge_full, last
dbl (4): district, receipts, disbursements, voteshare

ℹ Use `spec()` to retrieve the full column specification for this data.
ℹ Specify the column types or set `show_col_types = FALSE` to quiet this message.

# A tibble: 726 × 8
   party state district incumbent_challenge_full receipts disbur…¹ last  votes…²
   <chr> <chr>    <dbl> <chr>                       <dbl>    <dbl> <chr>   <dbl>
 1 REP   AL           1 Open seat                2344517. 2232544. CARL     64.4
 2 DEM   AL           1 Open seat                  80095.   78973. AVER…    35.5
 3 DEM   AL           2 Open seat                  57723.   57661. HARV…    34.7
 4 REP   AL           5 Incumbent                 669026.  223707. BROO…    95.8
 5 DEM   AL           7 Incumbent                2171040. 1498832. SEWE…    97.2
 6 REP   AR           1 Incumbent                 966801. 1095518. CRAW…   100  
 7 DEM   CA           7 Incumbent                1830741. 1126436. BERA     56.6
 8 REP   CA           3 Challenger                397099.  384584. HAMI…    45.3
 9 DEM   CA           4 Challenger               3022017. 3018529. KENN…    44.1
10 REP   CA           6 Challenger                 45504.   45286. BISH     26.7
# … with 716 more rows, and abbreviated variable names ¹​disbursements,
#   ²​voteshare
…
[1] TRUE

What if we have a vector of integers between 1 and and 7 called x, and we want to check whether the number 3 is in this vector?

x <- 1:7
3%in%x

[1] TRUE

Logical conditions like these are useful for taking portions/subsets of our data to which a certain condition applies. For example, in our house data, we can take only the rows for Democratic candidates:

house[house$party=="DEM",]

# A tibble: 378 × 8
   party state district incumbent_challenge_full receipts disbur…¹ last  votes…²
   <chr> <chr>    <dbl> <chr>                       <dbl>    <dbl> <chr>   <dbl>
 1 DEM   AL           1 Open seat                  80095.   78973. AVER…    35.5
 2 DEM   AL           2 Open seat                  57723.   57661. HARV…    34.7
 3 DEM   AL           7 Incumbent                2171040. 1498832. SEWE…    97.2
 4 DEM   CA           7 Incumbent                1830741. 1126436. BERA     56.6
 5 DEM   CA           4 Challenger               3022017. 3018529. KENN…    44.1
 6 DEM   CA           8 Open seat                1878106. 1876718. BUBS…    43.9
 7 DEM   CA          11 Incumbent                 612404.  442547. DESA…    73.0
 8 DEM   CA           3 Incumbent                1103806.  717060. GARA…    54.7
 9 DEM   CA          18 Challenger                777037.  697543. KUMAR    36.8
10 DEM   CA          22 Challenger               5175373. 5146107. ARBA…    45.8
# … with 368 more rows, and abbreviated variable names ¹​disbursements,
#   ²​voteshare

This code will give you the same output:

house[house$party!="REP",]

We can also look only at candidates who received more than 50% of the vote:

house[house$voteshare>50,]

# A tibble: 380 × 8
   party state district incumbent_challenge_full  receipts disbu…¹ last  votes…²
   <chr> <chr>    <dbl> <chr>                        <dbl>   <dbl> <chr>   <dbl>
 1 REP   AL           1 Open seat                 2344517.  2.23e6 CARL     64.4
 2 REP   AL           5 Incumbent                  669026.  2.24e5 BROO…    95.8
 3 DEM   AL           7 Incumbent                 2171040.  1.50e6 SEWE…    97.2
 4 REP   AR           1 Incumbent                  966801.  1.10e6 CRAW…   100  
 5 DEM   CA           7 Incumbent                 1830741.  1.13e6 BERA     56.6
 6 REP   CA           8 Open seat                 2028339.  1.96e6 OBER…    56.1
 7 DEM   CA          11 Incumbent                  612404.  4.43e5 DESA…    73.0
 8 DEM   CA           3 Incumbent                 1103806.  7.17e5 GARA…    54.7
 9 REP   CA          25 Incumbent                10140614.  9.76e6 GARC…    50.0
10 DEM   CA          28 Incumbent                19598363.  1.04e7 SCHI…    72.7
# … with 370 more rows, and abbreviated variable names ¹​disbursements,
#   ²​voteshare
…
Operator
Task

&
AND

|
OR

For example, we can get only the observations in our dataset for Democrats who received more than 50% of the vote.

house[house$party=="DEM"&house$voteshare>50,]

# A tibble: 192 × 8
   party state district incumbent_challenge_full  receipts disbu…¹ last  votes…²
   <chr> <chr>    <dbl> <chr>                        <dbl>   <dbl> <chr>   <dbl>
 1 DEM   AL           7 Incumbent                 2171040.  1.50e6 SEWE…    97.2
 2 DEM   CA           7 Incumbent                 1830741.  1.13e6 BERA     56.6
 3 DEM   CA          11 Incumbent                  612404.  4.43e5 DESA…    73.0
 4 DEM   CA           3 Incumbent                 1103806.  7.17e5 GARA…    54.7
 5 DEM   CA          28 Incumbent                19598363.  1.04e7 SCHI…    72.7
 6 DEM   CA          27 Incumbent                 1220538.  9.63e5 CHU      69.8
 7 DEM   CA          37 Incumbent                 2233947.  1.22e6 BASS     85.9
 8 DEM   CT           3 Incumbent                 1956686.  1.81e6 DELA…    56.1
 9 DEM   DC           0 Incumbent                  387489.  3.59e5 NORT…    81.9
10 DEM   FL          24 Incumbent                  412592.  3.21e5 WILS…    75.6
# … with 182 more rows, and abbreviated variable names ¹​disbursements,
#   ²​voteshare
…
.
 Incumbent Challenger  Open seat 
0.48898072 0.41597796 0.09504132 

Question
Answer

Subset the data so that we only have rows for incumbents OR candidates who received more than 60% of the vote.

Subset the data so that we only have rows for incumbents OR candidates who received more than 60% of the vote.

house[house$incumbent_challenge_full=="Incumbent"|house$voteshare>60,]

# A tibble: 374 × 8
   party state district incumbent_challenge_full  receipts disbu…¹ last  votes…²
   <chr> <chr>    <dbl> <chr>                        <dbl>   <dbl> <chr>   <dbl>
 1 REP   AL           1 Open seat                 2344517.  2.23e6 CARL     64.4
 2 REP   AL           5 Incumbent                  669026.  2.24e5 BROO…    95.8
 3 DEM   AL           7 Incumbent                 2171040.  1.50e6 SEWE…    97.2
 4 REP   AR           1 Incumbent                  966801.  1.10e6 CRAW…   100  
 5 DEM   CA           7 Incumbent                 1830741.  1.13e6 BERA     56.6
 6 DEM   CA          11 Incumbent                  612404.  4.43e5 DESA…    73.0
 7 DEM   CA           3 Incumbent                 1103806.  7.17e5 GARA…    54.7
 8 REP   CA          25 Incumbent                10140614.  9.76e6 GARC…    50.0
 9 DEM   CA          28 Incumbent                19598363.  1.04e7 SCHI…    72.7
10 DEM   CA          27 Incumbent                 1220538.  9.63e5 CHU      69.8
# … with 364 more rows, and abbreviated variable names ¹​disbursements,
#   ²​voteshare
